%YAML 1.1
%TAG !u! tag:unity3d.com,2011:
--- !u!1045 &1
EditorBuildSettings:
  m_ObjectHideFlags: 0
  serializedVersion: 2
  m_Scenes:
  - enabled: 1
    path: Assets/_Scenes/SampleScene.unity
    guid: 99c9720ab356a0642a771bea13969a05
  m_configObjects:
    Unity.XR.Oculus.Settings: {fileID: 11400000, guid: 8b6ab68c479aa864d9948e6ba38e4fe9,
      type: 2}
    com.unity.xr.management.loader_settings: {fileID: 11400000, guid: 1ddab51aae2d56541b00d6e6e0e537a3,
      type: 2}
    com.unity.xr.openxr.settings4: {fileID: 11400000, guid: 5ea5511c7df71964d8d86acff63f91d5,
      type: 2}
